{"tracks":{"href":"https://api.spotify.com/v1/search?query=pyt&type=track&offset=0&limit=3","items":[{"album":{"album_type":"single","artists":[{"external_urls":{"spotify":"https://open.spotify.com/artist/67nwj3Y5sZQLl72VNUHEYE"},"href":"https://api.spotify.com/v1/artists/67nwj3Y5sZQLl72VNUHEYE","id":"67nwj3Y5sZQLl72VNUHEYE","name":"Wale","type":"artist","uri":"spotify:artist:67nwj3Y5sZQLl72VNUHEYE"}],"available_markets":["AD","AR","AT","AU","BE","BG","BO","BR","CA","CH","CL","CO","CR","CY","CZ","DE","DK","DO","EC","EE","ES","FI","FR","GB","GR","GT","HK","HN","HU","ID","IE","IS","IT","JP","LI","LT","LU","LV","MC","MT","MX","MY","NI","NL","NO","NZ","PA","PE","PH","PL","PT","PY","SE","SG","SK","SV","TH","TR","TW","US","UY","VN"],"external_urls":{"spotify":"https://open.spotify.com/album/7vcNTIRL0xipqiwK409Kee"},"href":"https://api.spotify.com/v1/albums/7vcNTIRL0xipqiwK409Kee","id":"7vcNTIRL0xipqiwK409Kee","images":[{"height":640,"url":"https://i.scdn.co/image/f77138dabda832c85e452e2d8cc6edb20a83c136","width":640},{"height":300,"url":"https://i.scdn.co/image/5ab111cbd3ec5ac66549b84e8c6b3a3800aeb25b","width":300},{"height":64,"url":"https://i.scdn.co/image/0b05d0d77b7deb50a3792e07d02917fb91ddd222","width":64}],"name":"MY PYT","type":"album","uri":"spotify:album:7vcNTIRL0xipqiwK409Kee"},"artists":[{"external_urls":{"spotify":"https://open.spotify.com/artist/67nwj3Y5sZQLl72VNUHEYE"},"href":"https://api.spotify.com/v1/artists/67nwj3Y5sZQLl72VNUHEYE","id":"67nwj3Y5sZQLl72VNUHEYE","name":"Wale","type":"artist","uri":"spotify:artist:67nwj3Y5sZQLl72VNUHEYE"}],"available_markets":["AD","AR","AT","AU","BE","BG","BO","BR","CA","CH","CL","CO","CR","CY","CZ","DE","DK","DO","EC","EE","ES","FI","FR","GB","GR","GT","HK","HN","HU","ID","IE","IS","IT","JP","LI","LT","LU","LV","MC","MT","MX","MY","NI","NL","NO","NZ","PA","PE","PH","PL","PT","PY","SE","SG","SK","SV","TH","TR","TW","US","UY","VN"],"disc_number":1,"duration_ms":235652,"explicit":true,"external_ids":{"isrc":"USAT21601496"},"external_urls":{"spotify":"https://open.spotify.com/track/4jK1VQQGDnNOLfyVXCxGsR"},"href":"https://api.spotify.com/v1/tracks/4jK1VQQGDnNOLfyVXCxGsR","id":"4jK1VQQGDnNOLfyVXCxGsR","name":"MY PYT","popularity":68,"preview_url":"https://p.scdn.co/mp3-preview/d2bae13a5b302fd4afa96e89d0dab7ee63172534?cid=35ff7fa7ee764a34a0c49474e421b449","track_number":1,"type":"track","uri":"spotify:track:4jK1VQQGDnNOLfyVXCxGsR"},{"album":{"album_type":"album","artists":[{"external_urls":{"spotify":"https://open.spotify.com/artist/3fMbdgg4jU18AjLCKBhRSm"},"href":"https://api.spotify.com/v1/artists/3fMbdgg4jU18AjLCKBhRSm","id":"3fMbdgg4jU18AjLCKBhRSm","name":"Michael Jackson","type":"artist","uri":"spotify:artist:3fMbdgg4jU18AjLCKBhRSm"}],"available_markets":["AD","AR","AT","AU","BE","BG","BO","BR","CA","CH","CL","CO","CR","CY","CZ","DE","DK","DO","EC","EE","ES","FI","FR","GB","GR","GT","HK","HN","HU","ID","IE","IS","IT","JP","LI","LT","LU","LV","MC","MT","MX","MY","NI","NL","NO","NZ","PA","PE","PH","PL","PT","PY","SE","SG","SK","SV","TH","TR","TW","US","UY","VN"],"external_urls":{"spotify":"https://open.spotify.com/album/1C2h7mLntPSeVYciMRTF4a"},"href":"https://api.spotify.com/v1/albums/1C2h7mLntPSeVYciMRTF4a","id":"1C2h7mLntPSeVYciMRTF4a","images":[{"height":568,"url":"https://i.scdn.co/image/3c294000d8739af300d9a842934d6f7e090471c7","width":640},{"height":266,"url":"https://i.scdn.co/image/d50dab8e3338d47ddc84195a0779b6b80704f8c5","width":300},{"height":57,"url":"https://i.scdn.co/image/eb2b6bb819fd2b1795acd65efc8e1a975c487afc","width":64}],"name":"Thriller 25 Super Deluxe Edition","type":"album","uri":"spotify:album:1C2h7mLntPSeVYciMRTF4a"},"artists":[{"external_urls":{"spotify":"https://open.spotify.com/artist/3fMbdgg4jU18AjLCKBhRSm"},"href":"https://api.spotify.com/v1/artists/3fMbdgg4jU18AjLCKBhRSm","id":"3fMbdgg4jU18AjLCKBhRSm","name":"Michael Jackson","type":"artist","uri":"spotify:artist:3fMbdgg4jU18AjLCKBhRSm"}],"available_markets":["AD","AR","AT","AU","BE","BG","BO","BR","CA","CH","CL","CO","CR","CY","CZ","DE","DK","DO","EC","EE","ES","FI","FR","GB","GR","GT","HK","HN","HU","ID","IE","IS","IT","JP","LI","LT","LU","LV","MC","MT","MX","MY","NI","NL","NO","NZ","PA","PE","PH","PL","PT","PY","SE","SG","SK","SV","TH","TR","TW","US","UY","VN"],"disc_number":1,"duration_ms":238733,"explicit":false,"external_ids":{"isrc":"USSM19902993"},"external_urls":{"spotify":"https://open.spotify.com/track/5lA3pwMkBdd24StM90QrNR"},"href":"https://api.spotify.com/v1/tracks/5lA3pwMkBdd24StM90QrNR","id":"5lA3pwMkBdd24StM90QrNR","name":"P.Y.T. (Pretty Young Thing)","popularity":72,"preview_url":"https://p.scdn.co/mp3-preview/575230ca230ab7a79f1b2980e303d7f1612073f3?cid=35ff7fa7ee764a34a0c49474e421b449","track_number":8,"type":"track","uri":"spotify:track:5lA3pwMkBdd24StM90QrNR"},{"album":{"album_type":"album","artists":[{"external_urls":{"spotify":"https://open.spotify.com/artist/67nwj3Y5sZQLl72VNUHEYE"},"href":"https://api.spotify.com/v1/artists/67nwj3Y5sZQLl72VNUHEYE","id":"67nwj3Y5sZQLl72VNUHEYE","name":"Wale","type":"artist","uri":"spotify:artist:67nwj3Y5sZQLl72VNUHEYE"}],"available_markets":["AD","AR","AT","AU","BE","BG","BO","BR","CA","CH","CL","CO","CR","CY","CZ","DE","DK","DO","EC","EE","ES","FI","FR","GB","GR","GT","HK","HN","HU","ID","IE","IS","IT","JP","LI","LT","LU","LV","MC","MT","MX","MY","NI","NL","NO","NZ","PA","PE","PH","PL","PT","PY","SE","SG","SK","SV","TH","TR","TW","US","UY","VN"],"external_urls":{"spotify":"https://open.spotify.com/album/3X1Ljgkvf2cLwi8mMjhvKy"},"href":"https://api.spotify.com/v1/albums/3X1Ljgkvf2cLwi8mMjhvKy","id":"3X1Ljgkvf2cLwi8mMjhvKy","images":[{"height":640,"url":"https://i.scdn.co/image/f77138dabda832c85e452e2d8cc6edb20a83c136","width":640},{"height":300,"url":"https://i.scdn.co/image/5ab111cbd3ec5ac66549b84e8c6b3a3800aeb25b","width":300},{"height":64,"url":"https://i.scdn.co/image/0b05d0d77b7deb50a3792e07d02917fb91ddd222","width":64}],"name":"SHINE","type":"album","uri":"spotify:album:3X1Ljgkvf2cLwi8mMjhvKy"},"artists":[{"external_urls":{"spotify":"https://open.spotify.com/artist/67nwj3Y5sZQLl72VNUHEYE"},"href":"https://api.spotify.com/v1/artists/67nwj3Y5sZQLl72VNUHEYE","id":"67nwj3Y5sZQLl72VNUHEYE","name":"Wale","type":"artist","uri":"spotify:artist:67nwj3Y5sZQLl72VNUHEYE"}],"available_markets":["AD","AR","AT","AU","BE","BG","BO","BR","CA","CH","CL","CO","CR","CY","CZ","DE","DK","DO","EC","EE","ES","FI","FR","GB","GR","GT","HK","HN","HU","ID","IE","IS","IT","JP","LI","LT","LU","LV","MC","MT","MX","MY","NI","NL","NO","NZ","PA","PE","PH","PL","PT","PY","SE","SG","SK","SV","TH","TR","TW","US","UY","VN"],"disc_number":1,"duration_ms":236866,"explicit":true,"external_ids":{"isrc":"USAT21601496"},"external_urls":{"spotify":"https://open.spotify.com/track/2Fe6gDE0mCZz0g98i5QpVL"},"href":"https://api.spotify.com/v1/tracks/2Fe6gDE0mCZz0g98i5QpVL","id":"2Fe6gDE0mCZz0g98i5QpVL","name":"MY PYT","popularity":61,"preview_url":"https://p.scdn.co/mp3-preview/41ecd9a73f13ef7d34c5d67bcef7b8344e9a0e88?cid=35ff7fa7ee764a34a0c49474e421b449","track_number":12,"type":"track","uri":"spotify:track:2Fe6gDE0mCZz0g98i5QpVL"}],"limit":3,"next":"https://api.spotify.com/v1/search?query=pyt&type=track&offset=3&limit=3","offset":0,"previous":null,"total":399}}{"tracks":{"href":"https://api.spotify.com/v1/search?query=thriller&type=track&offset=0&limit=3","items":[{"album":{"album_type":"album","artists":[{"external_urls":{"spotify":"https://open.spotify.com/artist/3fMbdgg4jU18AjLCKBhRSm"},"href":"https://api.spotify.com/v1/artists/3fMbdgg4jU18AjLCKBhRSm","id":"3fMbdgg4jU18AjLCKBhRSm","name":"Michael Jackson","type":"artist","uri":"spotify:artist:3fMbdgg4jU18AjLCKBhRSm"}],"available_markets":["AD","AR","AT","AU","BE","BG","BO","BR","CA","CH","CL","CO","CR","CY","CZ","DE","DK","DO","EC","EE","ES","FI","FR","GB","GR","GT","HK","HN","HU","ID","IE","IS","IT","JP","LI","LT","LU","LV","MC","MT","MX","MY","NI","NL","NO","NZ","PA","PE","PH","PL","PT","PY","SE","SG","SK","SV","TH","TR","TW","US","UY","VN"],"external_urls":{"spotify":"https://open.spotify.com/album/1C2h7mLntPSeVYciMRTF4a"},"href":"https://api.spotify.com/v1/albums/1C2h7mLntPSeVYciMRTF4a","id":"1C2h7mLntPSeVYciMRTF4a","images":[{"height":568,"url":"https://i.scdn.co/image/3c294000d8739af300d9a842934d6f7e090471c7","width":640},{"height":266,"url":"https://i.scdn.co/image/d50dab8e3338d47ddc84195a0779b6b80704f8c5","width":300},{"height":57,"url":"https://i.scdn.co/image/eb2b6bb819fd2b1795acd65efc8e1a975c487afc","width":64}],"name":"Thriller 25 Super Deluxe Edition","type":"album","uri":"spotify:album:1C2h7mLntPSeVYciMRTF4a"},"artists":[{"external_urls":{"spotify":"https://open.spotify.com/artist/3fMbdgg4jU18AjLCKBhRSm"},"href":"https://api.spotify.com/v1/artists/3fMbdgg4jU18AjLCKBhRSm","id":"3fMbdgg4jU18AjLCKBhRSm","name":"Michael Jackson","type":"artist","uri":"spotify:artist:3fMbdgg4jU18AjLCKBhRSm"}],"available_markets":["AD","AR","AT","AU","BE","BG","BO","BR","CA","CH","CL","CO","CR","CY","CZ","DE","DK","DO","EC","EE","ES","FI","FR","GB","GR","GT","HK","HN","HU","ID","IE","IS","IT","JP","LI","LT","LU","LV","MC","MT","MX","MY","NI","NL","NO","NZ","PA","PE","PH","PL","PT","PY","SE","SG","SK","SV","TH","TR","TW","US","UY","VN"],"disc_number":1,"duration_ms":293826,"explicit":false,"external_ids":{"isrc":"USSM19902991"},"external_urls":{"spotify":"https://open.spotify.com/track/5ChkMS8OtdzJeqyybCc9R5"},"href":"https://api.spotify.com/v1/tracks/5ChkMS8OtdzJeqyybCc9R5","id":"5ChkMS8OtdzJeqyybCc9R5","name":"Billie Jean","popularity":81,"preview_url":"https://p.scdn.co/mp3-preview/4eb779428d40d579f14d12a9daf98fc66c7d0be4?cid=35ff7fa7ee764a34a0c49474e421b449","track_number":6,"type":"track","uri":"spotify:track:5ChkMS8OtdzJeqyybCc9R5"},{"album":{"album_type":"album","artists":[{"external_urls":{"spotify":"https://open.spotify.com/artist/3fMbdgg4jU18AjLCKBhRSm"},"href":"https://api.spotify.com/v1/artists/3fMbdgg4jU18AjLCKBhRSm","id":"3fMbdgg4jU18AjLCKBhRSm","name":"Michael Jackson","type":"artist","uri":"spotify:artist:3fMbdgg4jU18AjLCKBhRSm"}],"available_markets":["AD","AR","AT","AU","BE","BG","BO","BR","CA","CH","CL","CO","CR","CY","CZ","DE","DK","DO","EC","EE","ES","FI","FR","GB","GR","GT","HK","HN","HU","ID","IE","IS","IT","JP","LI","LT","LU","LV","MC","MT","MX","MY","NI","NL","NO","NZ","PA","PE","PH","PL","PT","PY","SE","SG","SK","SV","TH","TR","TW","US","UY","VN"],"external_urls":{"spotify":"https://open.spotify.com/album/1C2h7mLntPSeVYciMRTF4a"},"href":"https://api.spotify.com/v1/albums/1C2h7mLntPSeVYciMRTF4a","id":"1C2h7mLntPSeVYciMRTF4a","images":[{"height":568,"url":"https://i.scdn.co/image/3c294000d8739af300d9a842934d6f7e090471c7","width":640},{"height":266,"url":"https://i.scdn.co/image/d50dab8e3338d47ddc84195a0779b6b80704f8c5","width":300},{"height":57,"url":"https://i.scdn.co/image/eb2b6bb819fd2b1795acd65efc8e1a975c487afc","width":64}],"name":"Thriller 25 Super Deluxe Edition","type":"album","uri":"spotify:album:1C2h7mLntPSeVYciMRTF4a"},"artists":[{"external_urls":{"spotify":"https://open.spotify.com/artist/3fMbdgg4jU18AjLCKBhRSm"},"href":"https://api.spotify.com/v1/artists/3fMbdgg4jU18AjLCKBhRSm","id":"3fMbdgg4jU18AjLCKBhRSm","name":"Michael Jackson","type":"artist","uri":"spotify:artist:3fMbdgg4jU18AjLCKBhRSm"}],"available_markets":["AD","AR","AT","AU","BE","BG","BO","BR","CA","CH","CL","CO","CR","CY","CZ","DE","DK","DO","EC","EE","ES","FI","FR","GB","GR","GT","HK","HN","HU","ID","IE","IS","IT","JP","LI","LT","LU","LV","MC","MT","MX","MY","NI","NL","NO","NZ","PA","PE","PH","PL","PT","PY","SE","SG","SK","SV","TH","TR","TW","US","UY","VN"],"disc_number":1,"duration_ms":357266,"explicit":false,"external_ids":{"isrc":"USSM19902989"},"external_urls":{"spotify":"https://open.spotify.com/track/3S2R0EVwBSAVMd5UMgKTL0"},"href":"https://api.spotify.com/v1/tracks/3S2R0EVwBSAVMd5UMgKTL0","id":"3S2R0EVwBSAVMd5UMgKTL0","name":"Thriller","popularity":67,"preview_url":"https://p.scdn.co/mp3-preview/dd0621b7f11364a37c96031dbedbca6b88dbfa7d?cid=35ff7fa7ee764a34a0c49474e421b449","track_number":4,"type":"track","uri":"spotify:track:3S2R0EVwBSAVMd5UMgKTL0"},{"album":{"album_type":"album","artists":[{"external_urls":{"spotify":"https://open.spotify.com/artist/3fMbdgg4jU18AjLCKBhRSm"},"href":"https://api.spotify.com/v1/artists/3fMbdgg4jU18AjLCKBhRSm","id":"3fMbdgg4jU18AjLCKBhRSm","name":"Michael Jackson","type":"artist","uri":"spotify:artist:3fMbdgg4jU18AjLCKBhRSm"}],"available_markets":["AD","AR","AT","AU","BE","BG","BO","BR","CA","CH","CL","CO","CR","CY","CZ","DE","DK","DO","EC","EE","ES","FI","FR","GB","GR","GT","HK","HN","HU","ID","IE","IS","IT","JP","LI","LT","LU","LV","MC","MT","MX","MY","NI","NL","NO","NZ","PA","PE","PH","PL","PT","PY","SE","SG","SK","SV","TH","TR","TW","US","UY","VN"],"external_urls":{"spotify":"https://open.spotify.com/album/2X8UOIkZQdcz2Hi5Ynt2uk"},"href":"https://api.spotify.com/v1/albums/2X8UOIkZQdcz2Hi5Ynt2uk","id":"2X8UOIkZQdcz2Hi5Ynt2uk","images":[{"height":640,"url":"https://i.scdn.co/image/afc94d1d4b72d8c2d81660131e53f36ea92affda","width":640},{"height":300,"url":"https://i.scdn.co/image/0f75e9422e70650550ec9e4dee7c132fb9bede7a","width":300},{"height":64,"url":"https://i.scdn.co/image/b188d610efd0432755907dc336355b7df0827d87","width":64}],"name":"Scream","type":"album","uri":"spotify:album:2X8UOIkZQdcz2Hi5Ynt2uk"},"artists":[{"external_urls":{"spotify":"https://open.spotify.com/artist/3fMbdgg4jU18AjLCKBhRSm"},"href":"https://api.spotify.com/v1/artists/3fMbdgg4jU18AjLCKBhRSm","id":"3fMbdgg4jU18AjLCKBhRSm","name":"Michael Jackson","type":"artist","uri":"spotify:artist:3fMbdgg4jU18AjLCKBhRSm"}],"available_markets":["AD","AR","AT","AU","BE","BG","BO","BR","CA","CH","CL","CO","CR","CY","CZ","DE","DK","DO","EC","EE","ES","FI","FR","GB","GR","GT","HK","HN","HU","ID","IE","IS","IT","JP","LI","LT","LU","LV","MC","MT","MX","MY","NI","NL","NO","NZ","PA","PE","PH","PL","PT","PY","SE","SG","SK","SV","TH","TR","TW","US","UY","VN"],"disc_number":1,"duration_ms":358053,"explicit":false,"external_ids":{"isrc":"USSM19902989"},"external_urls":{"spotify":"https://open.spotify.com/track/7azo4rpSUh8nXgtonC6Pkq"},"href":"https://api.spotify.com/v1/tracks/7azo4rpSUh8nXgtonC6Pkq","id":"7azo4rpSUh8nXgtonC6Pkq","name":"Thriller","popularity":67,"preview_url":"https://p.scdn.co/mp3-preview/9f288fba4d3380b1ae25e7f88a2054d7fac0bf2d?cid=35ff7fa7ee764a34a0c49474e421b449","track_number":2,"type":"track","uri":"spotify:track:7azo4rpSUh8nXgtonC6Pkq"}],"limit":3,"next":"https://api.spotify.com/v1/search?query=thriller&type=track&offset=3&limit=3","offset":0,"previous":null,"total":6797}}